module gitlab.com/gorkun-com/library-go-logger

go 1.22.0

require github.com/rs/zerolog v1.32.0

require (
	github.com/mattn/go-colorable v0.1.13 // indirect
	github.com/mattn/go-isatty v0.0.20 // indirect
	github.com/pkg/errors v0.9.1 // indirect
	golang.org/x/sys v0.18.0 // indirect
)
